2012-10-25;00:04:59;66.249.71.200;Google Bot;Google Bot;section_7;1351083899;
2012-10-25;00:36:21;66.249.71.200;Google Bot;Google Bot;section_2;1351085781;
2012-10-25;01:06:09;66.249.66.137;Google Bot;Google Bot;section_7;1351087569;
2012-10-25;01:36:13;66.249.66.137;Google Bot;Google Bot;section_6;1351089373;
2012-10-25;02:04:52;66.249.66.137;Google Bot;Google Bot;section_7;1351091092;
2012-10-25;02:28:10;66.249.66.137;Google Bot;Google Bot;section_6;1351092490;
2012-10-25;02:56:59;66.249.66.137;Google Bot;Google Bot;section_5;1351094219;
2012-10-25;03:25:46;66.249.66.137;Google Bot;Google Bot;section_4;1351095946;
2012-10-25;03:54:35;66.249.71.200;Google Bot;Google Bot;section_7;1351097675;
2012-10-25;04:25:18;66.249.66.137;Google Bot;Google Bot;section_4;1351099518;
2012-10-25;04:55:34;66.249.71.200;Google Bot;Google Bot;section_4;1351101334;
2012-10-25;05:24:44;66.249.66.137;Google Bot;Google Bot;section_5;1351103084;
2012-10-25;05:54:39;66.249.66.137;Google Bot;Google Bot;section_2;1351104879;
2012-10-25;06:18:34;66.249.66.137;Google Bot;Google Bot;section_7;1351106314;
2012-10-25;07:06:27;66.249.71.200;Google Bot;Google Bot;section_5;1351109187;
2012-10-25;07:10:46;66.249.71.200;Google Bot;Google Bot;section_5;1351109446;
2012-10-25;07:12:57;66.249.71.200;Google Bot;Google Bot;section_6;1351109577;
2012-10-25;07:15:19;66.249.71.200;Google Bot;Google Bot;section_7;1351109719;
2012-10-25;07:33:52;66.249.71.200;Google Bot;Google Bot;section_6;1351110832;
2012-10-25;07:58:51;66.249.66.137;Google Bot;Google Bot;section_4;1351112331;
2012-10-25;08:27:39;66.249.66.137;Google Bot;Google Bot;section_4;1351114059;
2012-10-25;08:56:27;66.249.66.137;Google Bot;Google Bot;section_6;1351115787;
2012-10-25;09:25:15;66.249.66.137;Google Bot;Google Bot;section_6;1351117515;
2012-10-25;09:54:36;66.249.71.200;Google Bot;Google Bot;section_6;1351119276;
2012-10-25;10:24:47;66.249.66.137;Google Bot;Google Bot;section_3;1351121087;
2012-10-25;10:55:53;66.249.66.137;Google Bot;Google Bot;section_3;1351122953;
2012-10-25;11:25:53;66.249.66.137;Google Bot;Google Bot;section_5;1351124753;
2012-10-25;11:55:23;66.249.66.137;Google Bot;Google Bot;main;1351126523;
2012-10-25;12:18:03;66.249.66.137;Google Bot;Google Bot;main;1351127883;
2012-10-25;12:46:51;66.249.66.137;Google Bot;Google Bot;main;1351129611;
2012-10-25;13:15:39;66.249.71.200;Google Bot;Google Bot;main;1351131339;
2012-10-25;13:44:27;66.249.71.200;Google Bot;Google Bot;main;1351133067;
2012-10-25;14:15:14;66.249.71.200;Google Bot;Google Bot;main;1351134914;
2012-10-25;14:44:15;66.249.66.137;Google Bot;Google Bot;main;1351136655;
2012-10-25;15:14:18;66.249.71.200;Google Bot;Google Bot;main;1351138458;
2012-10-25;15:43:36;66.249.71.200;Google Bot;Google Bot;main;1351140216;
2012-10-25;16:08:27;66.249.66.137;Google Bot;Google Bot;main;1351141707;
2012-10-25;16:37:15;66.249.66.137;Google Bot;Google Bot;main;1351143435;
2012-10-25;17:06:03;66.249.66.137;Google Bot;Google Bot;main;1351145163;
2012-10-25;17:34:51;66.249.66.137;Google Bot;Google Bot;main;1351146891;
2012-10-25;18:03:45;66.249.66.137;Google Bot;Google Bot;main;1351148625;
2012-10-25;18:34:55;66.249.66.137;Google Bot;Google Bot;main;1351150495;
2012-10-25;19:04:08;66.249.71.200;Google Bot;Google Bot;main;1351152248;
2012-10-25;19:34:12;66.249.71.200;Google Bot;Google Bot;main;1351154052;
2012-10-25;19:58:51;66.249.66.137;Google Bot;Google Bot;main;1351155531;
2012-10-25;20:27:39;66.249.66.137;Google Bot;Google Bot;main;1351157259;
2012-10-25;20:56:28;66.249.66.137;Google Bot;Google Bot;main;1351158988;
2012-10-25;21:25:15;66.249.66.137;Google Bot;Google Bot;main;1351160715;
2012-10-25;21:54:03;66.249.66.137;Google Bot;Google Bot;main;1351162443;
2012-10-25;22:23:03;66.249.71.200;Google Bot;Google Bot;main;1351164183;
2012-10-25;22:52:59;66.249.66.137;Google Bot;Google Bot;main;1351165979;
2012-10-25;23:23:13;66.249.66.137;Google Bot;Google Bot;main;1351167793;
2012-10-25;23:53:42;66.249.66.137;Google Bot;Google Bot;main;1351169622;