2012-10-27;00:18:03;66.249.76.52;Google Bot;Google Bot;main;1351257483;
2012-10-27;00:46:51;66.249.76.52;Google Bot;Google Bot;main;1351259211;
2012-10-27;01:15:39;66.249.66.137;Google Bot;Google Bot;main;1351260939;
2012-10-27;01:44:39;66.249.66.137;Google Bot;Google Bot;main;1351262679;
2012-10-27;02:14:57;66.249.66.137;Google Bot;Google Bot;main;1351264497;
2012-10-27;02:45:06;66.249.66.137;Google Bot;Google Bot;main;1351266306;
2012-10-27;03:15:20;66.249.76.52;Google Bot;Google Bot;main;1351268120;
2012-10-27;03:42:18;66.249.76.52;Google Bot;Google Bot;main;1351269738;
2012-10-27;04:08:27;66.249.66.137;Google Bot;Google Bot;main;1351271307;
2012-10-27;04:37:15;66.249.66.137;Google Bot;Google Bot;main;1351273035;
2012-10-27;05:06:03;66.249.66.137;Google Bot;Google Bot;main;1351274763;
2012-10-27;05:34:51;66.249.66.137;Google Bot;Google Bot;main;1351276491;
2012-10-27;06:03:39;66.249.66.137;Google Bot;Google Bot;main;1351278219;
2012-10-27;06:33:54;66.249.66.137;Google Bot;Google Bot;main;1351280034;
2012-10-27;07:03:31;66.249.66.137;Google Bot;Google Bot;main;1351281811;
2012-10-27;07:33:25;66.249.66.137;Google Bot;Google Bot;main;1351283605;
2012-10-27;07:58:51;66.249.66.137;Google Bot;Google Bot;main;1351285131;
2012-10-27;08:27:39;66.249.66.137;Google Bot;Google Bot;main;1351286859;
2012-10-27;08:58:03;66.249.66.137;Google Bot;Google Bot;main;1351288683;