2012-10-28;08:20:14;66.249.66.137;Google Bot;Google Bot;main;1351372814;
2012-10-28;09:20:39;66.249.66.137;Google Bot;Google Bot;section_1;1351376439;
2012-10-28;13:28:56;66.249.66.137;Google Bot;Google Bot;section_1;1351391336;
2012-10-28;20:12:30;66.249.66.137;Google Bot;Google Bot;section_1;1351415550;
2012-10-28;20:12:33;66.249.76.52;Google Bot;Google Bot;main;1351415553;
2012-10-28;20:12:42;66.249.76.52;Google Bot;Google Bot;section_1;1351415562;
2012-10-28;20:24:37;66.249.66.137;Google Bot;Google Bot;section_1;1351416277;