2015-09-27;19:38:01;82.146.38.228;Safari;Mac OS X;main;1443346681;
2015-09-27;19:38:04;82.146.38.228;Safari;Mac OS X;check_form (JS);1443346684;
2015-09-27;19:38:05;82.146.38.228;Safari;Mac OS X;page_1 (JS);1443346685;
2015-09-27;19:38:06;82.146.38.228;Safari;Mac OS X;check_form (JS);1443346686;
2015-09-27;19:38:09;82.146.38.228;Safari;Mac OS X;page_1 (JS);1443346689;
2015-09-27;19:38:10;82.146.38.228;Safari;Mac OS X;order_form (JS);1443346690;
2015-09-27;19:38:12;82.146.38.228;Safari;Mac OS X;section_1 (JS);1443346692;
2015-09-27;19:39:16;82.146.38.228;Safari;Mac OS X;main;1443346756;
2015-09-27;19:39:21;82.146.38.228;Safari;Mac OS X;check_form (JS);1443346761;
2015-09-27;19:39:21;82.146.38.228;Safari;Mac OS X;page_1 (JS);1443346761;
2015-09-27;19:39:23;82.146.38.228;Safari;Mac OS X;mail_form (JS);1443346763;
2015-09-27;19:39:23;82.146.38.228;Safari;Mac OS X;page_1 (JS);1443346763;
2015-09-27;19:39:24;82.146.38.228;Safari;Mac OS X;check_form (JS);1443346764;
2015-09-27;19:39:25;82.146.38.228;Safari;Mac OS X;order_form (JS);1443346765;
2015-09-27;19:39:26;82.146.38.228;Safari;Mac OS X;section_1 (JS);1443346766;
2015-09-27;19:39:27;82.146.38.228;Safari;Mac OS X;add_to_cart_10 (JS);1443346767;
2015-09-27;19:39:39;82.146.38.228;Safari;Mac OS X;add_to_cart_10 (JS);1443346779;
2015-09-27;19:40:44;82.146.38.228;Safari;Mac OS X;main;1443346844;
2015-09-27;19:40:45;82.146.38.228;Safari;Mac OS X;main;1443346845;
2015-09-27;19:41:12;82.146.38.228;Safari;Mac OS X;page_1 (JS);1443346872;
2015-09-27;19:41:12;82.146.38.228;Safari;Mac OS X;check_form (JS);1443346872;
2015-09-27;19:44:01;82.146.38.228;Safari;Mac OS X;main;1443347041;
2015-09-27;19:44:23;82.146.38.228;Safari;Mac OS X;section_2 (JS);1443347063;
2015-09-27;19:44:24;82.146.38.228;Safari;Mac OS X;section_6 (JS);1443347064;
2015-09-27;19:44:25;82.146.38.228;Safari;Mac OS X;section_4 (JS);1443347065;
2015-09-27;19:44:26;82.146.38.228;Safari;Mac OS X;section_7 (JS);1443347066;
2015-09-27;19:44:27;82.146.38.228;Safari;Mac OS X;section_4 (JS);1443347067;
2015-09-27;19:44:30;82.146.38.228;Safari;Mac OS X;section_1 (JS);1443347070;
2015-09-27;19:44:31;82.146.38.228;Safari;Mac OS X;section_2 (JS);1443347071;
2015-09-27;19:44:32;82.146.38.228;Safari;Mac OS X;section_4 (JS);1443347072;
2015-09-27;19:45:35;82.146.38.228;Safari;Mac OS X;section_1 (JS);1443347135;